,date,close,diff,open,high,low,volume
448,2017-05-29,167000,5500,162000,168000,161500,239835
447,2017-05-30,162500,4500,166500,168000,160500,206983
446,2017-05-31,163000,500,162000,164500,159000,173958
445,2017-06-01,164000,1000,160500,164000,160500,112013
444,2017-06-02,167500,3500,165500,167500,164500,152825
440,2017-06-05,170500,3000,167500,171000,166500,167966
439,2017-06-07,170500,0,169500,172000,168000,136411
438,2017-06-08,173500,3000,171500,173500,168000,259311
437,2017-06-09,173500,0,173500,174000,171500,133478
436,2017-06-12,166500,7000,170000,171000,166500,152538
433,2017-06-13,169000,2500,166000,169500,166000,104405
432,2017-06-14,165000,4000,169000,172000,164000,175716
431,2017-06-15,163000,2000,164500,166500,162000,160471
430,2017-06-16,160000,3000,163000,164500,158500,171694
429,2017-06-19,166000,6000,160000,166000,159000,130514
425,2017-06-20,160500,5500,167500,168000,160500,141368
424,2017-06-21,161000,500,158000,162000,155000,146182
423,2017-06-22,168000,7000,160500,169000,160500,213951
422,2017-06-23,174000,6000,170000,175500,169500,286336
421,2017-06-26,184000,10000,175000,185500,172500,500035
418,2017-06-27,184000,0,183500,188000,182000,237619
417,2017-06-28,187000,3000,181500,188000,181000,230512
416,2017-06-29,189000,2000,189000,191000,185000,169835
415,2017-06-30,184500,4500,185500,186500,183000,169026
414,2017-07-03,180000,4500,184500,185000,178500,154796
410,2017-07-04,183500,3500,179000,188000,179000,211273
409,2017-07-05,187500,4000,183500,188000,183000,123755
408,2017-07-06,186500,1000,186500,188500,185000,112938
407,2017-07-07,188500,2000,185500,189500,183500,128285
406,2017-07-10,188500,0,190500,191500,187500,106315
403,2017-07-11,185000,3500,188500,188500,183500,113889
402,2017-07-12,182000,3000,183500,184500,181000,101437
401,2017-07-13,188000,6000,183500,189000,183000,199313
400,2017-07-14,182500,5500,188500,188500,181000,134143
399,2017-07-17,190000,7500,183000,190000,183000,215559
395,2017-07-18,191000,1000,189500,191000,187500,94543
394,2017-07-19,186000,5000,191000,192000,183500,201863
393,2017-07-20,188500,2500,187000,188500,184000,99820
392,2017-07-21,190500,2000,188500,190500,186000,103658
391,2017-07-24,190000,500,191500,192000,188000,79005
388,2017-07-25,190000,0,190500,191000,188500,73608
387,2017-07-26,173000,17000,186500,187000,172500,521931
386,2017-07-27,178000,5000,174500,179000,174000,172568
385,2017-07-28,177000,1000,176000,179500,176000,147961
384,2017-07-31,179000,2000,177000,180000,177000,75857
380,2017-08-01,177000,2000,177500,180000,175000,95113
379,2017-08-02,180000,3000,178000,182000,177500,113102
378,2017-08-03,177500,2500,179000,181000,175500,119326
377,2017-08-04,178500,1000,178000,180000,176500,49611
376,2017-08-07,177000,1500,179500,180000,177000,49147
373,2017-08-08,178000,1000,177000,179500,177000,46301
372,2017-08-09,175000,3000,175500,177000,173000,74033
371,2017-08-10,176000,1000,173000,177500,171000,98670
370,2017-08-11,172500,3500,172000,174000,171000,86800
369,2017-08-14,174500,2000,172500,175000,172500,41962
365,2017-08-16,174000,500,175000,175500,171500,64992
364,2017-08-17,173000,1000,172500,174500,172500,45860
363,2017-08-18,172000,1000,171000,173500,171000,45281
362,2017-08-21,166500,5500,171500,173000,166000,120216
361,2017-08-22,168500,2000,168000,169000,167000,84074
358,2017-08-23,165500,3000,169000,170500,164000,131831
357,2017-08-24,168000,2500,165500,168000,165500,80171
356,2017-08-25,166500,1500,168000,174500,164500,177787
355,2017-08-28,170500,4000,166500,172000,164500,99473
354,2017-08-29,170000,500,170000,171500,166500,54519
350,2017-08-30,169500,500,170000,171500,168500,46295
349,2017-08-31,167500,2000,169500,170500,167500,59724
348,2017-09-01,164000,3500,167500,169000,163500,91441
347,2017-09-04,161500,2500,160500,162500,160000,95395
346,2017-09-05,161000,500,162500,163000,160500,59261
343,2017-09-06,160500,500,161000,162000,159000,76913
342,2017-09-07,165500,5000,160500,168000,160500,94278
341,2017-09-08,171500,6000,164500,173000,164500,137382
340,2017-09-11,171500,0,173000,175000,170000,92241
339,2017-09-12,169500,2000,172000,172500,168000,83564
335,2017-09-13,172000,2500,169000,173500,168000,85921
334,2017-09-14,173000,1000,171000,173000,169000,115902
333,2017-09-15,174500,1500,171500,174500,170000,79123
332,2017-09-18,172500,2000,174500,175000,172000,86462
331,2017-09-19,175000,2500,172500,175500,172000,95983
328,2017-09-20,171500,3500,175000,176000,170500,95742
327,2017-09-21,167500,4000,170500,171500,167500,76853
326,2017-09-22,168000,500,166000,170000,166000,64157
325,2017-09-25,165500,2500,167500,170000,165500,67326
324,2017-09-26,170000,4500,168000,170000,165000,70092
320,2017-09-27,167500,2500,168500,169500,166500,37906
319,2017-09-28,164000,3500,165500,168000,162000,67564
318,2017-09-29,168500,4500,164500,168500,163500,60401
317,2017-10-10,170500,2000,170000,172500,168000,110009
316,2017-10-11,177500,7000,170000,178000,168500,204116
313,2017-10-12,182000,4500,178500,182000,176500,195029
312,2017-10-13,179000,3000,180500,183500,177500,159767
311,2017-10-16,184000,5000,182000,184500,179000,161119
310,2017-10-17,189500,5500,185000,190000,184500,261900
309,2017-10-18,188500,1000,189000,190500,185500,141259
305,2017-10-19,187000,1500,189000,190500,185000,118789
304,2017-10-20,195500,8500,187500,195500,187500,307816
303,2017-10-23,195500,0,197500,197500,192000,153996
302,2017-10-24,196500,1000,194000,197000,193500,108802
301,2017-10-25,193000,3500,196500,196500,189500,173777
298,2017-10-26,197500,4500,196500,198000,191000,196906
297,2017-10-27,194500,3000,196000,198000,194000,90137
296,2017-10-30,207000,12500,196500,207500,195500,332607
295,2017-10-31,207000,0,206500,213500,205000,266549
294,2017-11-01,209000,2000,204500,211500,204000,214919
290,2017-11-02,203000,6000,206500,210000,202000,159847
289,2017-11-03,210500,7500,204000,210500,203500,166722
288,2017-11-06,212000,1500,210500,212500,206000,123326
287,2017-11-07,206000,6000,211000,211500,204500,142357
286,2017-11-08,208000,2000,204000,208000,202500,108021
283,2017-11-09,204000,4000,208000,208500,203000,117379
282,2017-11-10,204000,0,202500,206500,202000,88814
281,2017-11-13,197500,6500,202000,204000,195000,194345
280,2017-11-14,198000,500,196000,202000,195000,146601
279,2017-11-15,202500,4500,198500,204000,198500,115152
275,2017-11-16,202000,500,200000,203500,198500,95565
274,2017-11-17,201500,500,202000,206500,201000,99062
273,2017-11-20,197000,4500,200000,202000,197000,114938
272,2017-11-21,199500,2500,199500,203000,198500,123969
271,2017-11-22,201500,2000,202500,205000,200000,112215
268,2017-11-23,200000,1500,201500,202500,200000,94763
267,2017-11-24,201000,1000,200000,201500,198500,60304
266,2017-11-27,194500,6500,202500,203000,194000,153932
265,2017-11-28,193500,1000,194000,196500,192000,84811
264,2017-11-29,197000,3500,196000,197500,194500,93649
260,2017-11-30,188000,9000,198500,199000,188000,188701
259,2017-12-01,191500,3500,190000,192000,188500,92283
258,2017-12-04,198000,6500,194000,198500,193000,122144
257,2017-12-05,199000,1000,198000,202500,198000,115519
256,2017-12-06,197000,2000,200000,200000,196000,84336
253,2017-12-07,199000,2000,198500,199000,195000,82727
252,2017-12-08,200500,1500,201000,201500,198000,111424
251,2017-12-11,199000,1500,201000,201000,195500,64943
250,2017-12-12,196500,2500,198500,199500,195000,73065
249,2017-12-13,199000,2500,196500,200500,195500,73575
245,2017-12-14,206000,7000,200500,209500,200500,399411
244,2017-12-15,206500,500,208000,209000,205000,131433
243,2017-12-18,207500,1000,206500,208000,202500,97605
242,2017-12-19,206000,1500,208500,211500,205000,113673
241,2017-12-20,206000,0,206500,207000,203000,82237
238,2017-12-21,196500,9500,206000,206000,194500,145387
237,2017-12-22,197500,1000,197500,200000,195500,79273
236,2017-12-26,193500,4000,198000,199000,193500,118343
235,2017-12-27,196000,2500,196500,202500,193500,106992
234,2017-12-28,200000,4000,196000,200000,194500,62913
230,2018-01-02,202000,2000,200000,202500,198000,95724
229,2018-01-03,203500,1500,200500,204500,199500,105950
228,2018-01-04,223500,20000,203500,231000,203500,671048
227,2018-01-05,227000,3500,226000,229500,219000,374014
226,2018-01-08,248000,21000,228000,248000,227500,686437
223,2018-01-09,242000,6000,250000,253000,241000,368721
222,2018-01-10,251000,9000,246000,251000,242500,278096
221,2018-01-11,249000,2000,252000,260000,244000,523376
220,2018-01-12,252000,3000,251000,255000,246500,283745
219,2018-01-15,250500,1500,256000,262000,246500,293254
215,2018-01-16,253000,2500,249500,255000,245500,181825
214,2018-01-17,264000,11000,256000,270000,251000,580449
213,2018-01-18,262500,1500,267000,267000,259000,228429
212,2018-01-19,254500,8000,263000,263500,254000,220617
211,2018-01-22,243500,11000,255000,255000,242000,330445
208,2018-01-23,254500,11000,247500,256000,245500,251627
207,2018-01-24,258500,4000,254500,260000,251500,232845
206,2018-01-25,258500,0,255000,268000,255000,217460
205,2018-01-26,260000,1500,258500,261000,253500,201975
204,2018-01-29,259000,1000,266500,266500,258500,147505
200,2018-01-30,254000,5000,257000,263500,253000,191362
199,2018-01-31,256500,2500,251000,259000,249000,210868
198,2018-02-01,256000,500,257500,259000,253500,97862
197,2018-02-02,247000,9000,256000,258000,243000,240158
196,2018-02-05,245500,1500,241000,249500,238000,208932
193,2018-02-06,236500,9000,235000,244500,230500,313288
192,2018-02-07,238500,2000,241000,246500,236000,325574
191,2018-02-08,236000,2500,239000,242000,234000,198470
190,2018-02-09,229000,7000,228500,232500,225000,235653
189,2018-02-12,229500,500,232000,235000,228000,135866
185,2018-02-13,237000,7500,232500,242500,227500,232392
184,2018-02-14,240000,3000,238000,245000,237000,176010
183,2018-02-19,240000,0,244500,245500,237500,104115
182,2018-02-20,234500,5500,238500,240000,233000,93557
181,2018-02-21,238500,4000,234000,241000,233500,121538
178,2018-02-22,240000,1500,236000,241500,235000,114391
177,2018-02-23,251500,11500,241000,252000,238500,242628
176,2018-02-26,249000,2500,253000,253500,247500,111976
175,2018-02-27,247500,1500,249000,253000,246000,127621
174,2018-02-28,238000,9500,245000,247500,236500,187378
170,2018-03-02,238000,0,233000,239000,233000,96390
169,2018-03-05,233500,4500,236500,239500,233000,100571
168,2018-03-06,239500,6000,236000,240500,234500,98069
167,2018-03-07,236500,3000,236500,242000,236000,92961
166,2018-03-08,246000,9500,239000,247000,238500,202467
163,2018-03-09,247500,1500,248000,250000,245000,121657
162,2018-03-12,253000,5500,250500,253000,246500,141611
161,2018-03-13,257500,4500,250000,259000,248500,177345
160,2018-03-14,257500,0,255000,258500,254500,85199
159,2018-03-15,258500,1000,257000,261500,255500,101362
155,2018-03-16,259500,1000,257500,259500,257000,90450
154,2018-03-19,250500,9000,258500,259500,250000,110903
153,2018-03-20,258500,8000,248000,258500,247000,104704
152,2018-03-21,255500,3000,258500,260000,254000,108701
151,2018-03-22,254000,1500,254500,258500,252000,113798
148,2018-03-23,245000,9000,246000,250500,243500,166147
147,2018-03-26,248000,3000,244000,250000,244000,98139
146,2018-03-27,253000,5000,252000,256000,250500,106010
145,2018-03-28,245500,7500,250000,254500,243000,140087
144,2018-03-29,252500,7000,245000,255000,245000,122863
140,2018-03-30,255500,3000,254500,263000,252500,295941
139,2018-04-02,250500,5000,258500,259000,250500,123536
138,2018-04-03,247500,3000,247000,248000,242000,123820
137,2018-04-04,239500,8000,246000,248000,239000,198196
136,2018-04-05,240000,500,242000,243000,239500,75342
133,2018-04-06,239500,500,238000,243500,236500,128782
132,2018-04-09,243000,3500,237000,244500,237000,87874
131,2018-04-10,245000,2000,243000,247500,241000,116485
130,2018-04-11,236000,9000,243000,245500,232000,270665
129,2018-04-12,235000,1000,237500,238500,233000,100568
125,2018-04-13,237500,2500,236500,240500,236000,97841
124,2018-04-16,233500,4000,236500,238500,232500,90377
123,2018-04-17,236500,3000,232500,237000,232500,89169
122,2018-04-18,237000,500,240000,244500,236500,143845
121,2018-04-19,230500,6500,236000,238500,229500,137359
118,2018-04-20,243000,12500,234500,244000,234500,230598
117,2018-04-23,240000,3000,245000,245000,235000,109357
116,2018-04-24,244000,4000,240500,246000,237500,129772
115,2018-04-25,243000,1000,242000,244000,238500,82367
114,2018-04-26,240000,3000,242500,244000,239000,95369
110,2018-04-27,241500,1500,240000,244000,239500,75730
109,2018-04-30,245000,3500,243000,248500,242500,83310
108,2018-05-02,230500,14500,241000,243000,227500,236708
107,2018-05-03,234000,3500,230000,235000,227500,100313
106,2018-05-04,218500,15500,229000,232000,218500,246681
103,2018-05-08,208500,10000,221500,223500,207000,265570
102,2018-05-09,218500,10000,209000,221500,208500,191035
101,2018-05-10,222000,3500,219500,223000,218000,94733
100,2018-05-11,223500,1500,219500,224000,219000,63881
99,2018-05-14,221500,2000,223500,227500,220500,62306
95,2018-05-15,219500,2000,220500,223500,218500,78651
94,2018-05-16,222000,2500,222500,223000,218500,50882
93,2018-05-17,222000,0,221500,224500,220500,67290
92,2018-05-18,221000,1000,221000,222500,219500,69591
91,2018-05-21,223500,2500,223500,224000,219500,59452
88,2018-05-23,219000,4500,220000,222500,218500,91305
87,2018-05-24,222000,3000,219500,222500,216500,77590
86,2018-05-25,225000,3000,225500,226000,222000,81957
85,2018-05-28,221000,4000,225000,225500,220000,80392
84,2018-05-29,220500,500,220500,222000,219000,54121
80,2018-05-30,214000,6500,219000,221000,211500,124010
79,2018-05-31,211000,3000,214000,217000,211000,166820
78,2018-06-01,224000,13000,212000,224500,211000,145063
77,2018-06-04,222000,2000,225000,226000,221500,65911
76,2018-06-05,226500,4500,222500,228000,222000,96959
73,2018-06-07,232000,5500,227500,232000,225500,114453
72,2018-06-08,233500,1500,229500,234500,228500,90812
71,2018-06-11,230000,3500,230500,232000,227500,67487
70,2018-06-12,229500,500,229500,230500,224500,64971
69,2018-06-14,228500,1000,228500,231500,226500,95981
65,2018-06-15,196500,32000,223500,224000,195000,897131
64,2018-06-18,195500,1000,196000,201500,192500,288812
63,2018-06-19,206000,10500,198000,206000,194000,384185
62,2018-06-20,207000,1000,207000,210000,201000,252924
61,2018-06-21,203000,4000,204500,209000,202500,119748
58,2018-06-22,201000,2000,201000,202500,199000,106718
57,2018-06-25,206000,5000,200500,207000,200500,94434
56,2018-06-26,205000,1000,203000,207500,201000,84943
55,2018-06-27,205000,0,203000,207000,202500,72294
54,2018-06-28,203000,2000,206500,206500,201500,69080
50,2018-06-29,200500,2500,204500,205000,198000,94776
49,2018-07-02,196500,4000,200500,203500,196000,90323
48,2018-07-03,197000,500,200000,200000,194500,63571
47,2018-07-04,196500,500,195000,201500,195000,50062
46,2018-07-05,190500,6000,197500,198500,188000,113457
43,2018-07-06,193500,3000,190500,196000,190000,116569
42,2018-07-09,201500,8000,194000,203000,194000,140713
41,2018-07-10,204000,2500,202000,207500,200500,107290
40,2018-07-11,199000,5000,200000,202000,196500,85901
39,2018-07-12,206500,7500,201500,208000,199500,161848
35,2018-07-13,202500,4000,206500,209000,202000,117735
34,2018-07-16,200000,2500,202500,206000,198500,78854
33,2018-07-17,206500,6500,200000,208000,198000,113157
32,2018-07-18,208500,2000,206500,210000,204000,106051
31,2018-07-19,205000,3500,208000,209000,204000,64464
28,2018-07-20,207000,2000,205000,210000,204000,84474
27,2018-07-23,207000,0,208500,210000,204500,88380
26,2018-07-24,207500,500,206000,209000,205000,53924
25,2018-07-25,206500,1000,207500,210500,205000,81269
24,2018-07-26,210500,4000,209000,210500,204500,110940
20,2018-07-27,208000,2500,214000,218500,207500,217643
19,2018-07-30,207000,1000,208500,213000,205500,88551
18,2018-07-31,209500,2500,209000,213500,207500,112949
17,2018-08-01,212500,3000,211000,215000,209500,106540
16,2018-08-02,210000,2500,212000,214500,208000,59357
13,2018-08-03,209000,1000,209500,211000,205500,62334
12,2018-08-06,208500,500,208500,210500,206500,44074
11,2018-08-07,214500,6000,208500,214500,207500,132151
10,2018-08-08,227000,12500,214500,229000,214500,353202
9,2018-08-09,227000,0,230000,234500,223000,297671
5,2018-08-10,224000,3000,225500,227000,221500,119158
4,2018-08-13,227000,3000,221500,228500,217500,156656
3,2018-08-14,227000,0,226000,229500,222500,106622
2,2018-08-16,231000,4000,226500,231000,223500,129656
1,2018-08-17,229000,2000,231000,231500,227500,61491
